<?xml version="1.0" encoding="UTF-8" standalone="no"?>
<svg
   xmlns:dc="http://purl.org/dc/elements/1.1/"
   xmlns:cc="http://creativecommons.org/ns#"
   xmlns:rdf="http://www.w3.org/1999/02/22-rdf-syntax-ns#"
   xmlns:svg="http://www.w3.org/2000/svg"
   xmlns="http://www.w3.org/2000/svg"
   id="svg8"
   version="1.1"
   viewBox="0 0 203.42741 233.43434"
   height="233.43434mm"
   width="203.42741mm">
  <defs
     id="defs2" />
  <metadata
     id="metadata5">
    <rdf:RDF>
      <cc:Work
         rdf:about="">
        <dc:format>image/svg+xml</dc:format>
        <dc:type
           rdf:resource="http://purl.org/dc/dcmitype/StillImage" />
        <dc:title></dc:title>
      </cc:Work>
    </rdf:RDF>
  </metadata>
  <g
     transform="translate(53.9945,-17.297611)"
     id="layer1">
    <path
       id="path826"
       d="M 46.37664,250.504 C 45.93951,250.37672 23.56723,237.55848 -3.3395347,222.01901 -42.930107,199.15426 -52.417187,193.57151 -53.080167,192.7487 l -0.81925,-1.01674 -0.0776,-57.1916 c -0.0519,-38.213836 0.0117,-57.501377 0.19149,-58.125148 0.14803,-0.513456 0.65921,-1.307838 1.13598,-1.7653 0.47676,-0.457459 16.999811,-10.143636 36.717884,-21.524839 C 3.7864113,41.743873 25.812974,29.026748 33.01625,24.864796 l 13.09688,-7.567185 1.5875,0.0057 1.5875,0.0057 41.93646,24.228957 c 23.06505,13.325925 45.09161,26.045216 48.94792,28.265094 3.8563,2.219875 7.29093,4.290007 7.63252,4.600292 0.34158,0.310285 0.84759,1.005896 1.12448,1.545802 0.49024,0.955956 0.50341,2.474458 0.50341,58.020434 0,56.42849 -0.006,57.04984 -0.52672,58.07126 -0.2897,0.56785 -0.91478,1.3211 -1.38906,1.67387 -1.34802,1.00266 -97.32131,56.33781 -98.3613,56.712 -1.06776,0.38418 -1.66781,0.40087 -2.77916,0.0773 z M 3.6855573,191.66385 c 4.326509,-0.91702 7.9844237,-4.08449 9.5762157,-8.29225 l 0.572148,-1.51242 0.132292,-34.21561 0.132291,-34.21561 8.907132,10.66769 c 11.791544,14.12223 23.047284,27.59515 38.263934,45.80125 6.88085,8.23267 13.17075,15.57179 13.97755,16.30916 3.98269,3.63995 9.74638,5.70117 15.84514,5.66656 2.67773,-0.0152 3.50976,-0.12693 5.31241,-0.71342 4.64281,-1.51053 8.01266,-4.75898 9.21706,-8.88502 0.37602,-1.28818 0.41949,-6.35031 0.41949,-48.85391 0,-46.380997 -0.0114,-47.453541 -0.51968,-49.098324 -1.6174,-5.233437 -6.15667,-8.75575 -11.77196,-9.134623 -5.85978,-0.395369 -10.99997,2.749288 -13.30989,8.142701 l -0.72452,1.691655 -0.13229,34.343931 -0.13229,34.34394 -29.8074,-35.674 C 33.24912,98.414865 19.240647,81.804875 18.513247,81.124475 14.570516,77.436512 8.8770003,75.302827 2.8537133,75.255953 c -3.49318097,-0.02719 -5.12998,0.306155 -7.873307,1.603428 -2.314769,1.094613 -4.944002,3.459057 -5.9962323,5.392346 -1.550992,2.849685 -1.469744,0.0098 -1.473155,51.491553 -0.0031,46.72872 0.0044,47.42303 0.528479,49.11988 2.0061403,6.49513 8.7162913,10.26949 15.6460593,8.80069 z"/>
  </g>
</svg>
